[
  {
    "id": 1,
    "product_name": "Pepper - Black, Ground",
    "product_price": "2,79",
    "description": "Lorem ipsum dolor sit amet, consectetur adipiscing elit. Nulla sit amet ultrices nunc. Maecenas ut auctor ex, eget vulputate lorem. Pellentesque a porta est, at consequat nisl.",
    "manufactor": "Banco Santander, S.A.",
    "race" : "Samoyed",
    "robe": "Blanche",
    "product_img": "https://www.pet365.co.uk/blog/wp-content/uploads/Samoyed_31028689.jpg"
  },
  {
    "id": 2,
    "product_name": "Pasta - Fettuccine, Egg, Fresh",
    "product_price": "1,64",
    "description": "Lorem ipsum dolor sit amet, consectetur adipiscing elit. Nulla sit amet ultrices nunc. Maecenas ut auctor ex, eget vulputate lorem. Pellentesque a porta est, at consequat nisl.",
    "manufactor": "ArQule, Inc.",
    "race" : "Samoyed",
    "robe": "Blanche",
    "product_img": "https://www.pet365.co.uk/blog/wp-content/uploads/Samoyed_31028689.jpg"
  },
  {
    "id": 3,
    "product_name": "Tomatoes - Diced, Canned",
    "product_price": "0,69",
    "description": "Lorem ipsum dolor sit amet, consectetur adipiscing elit. Nulla sit amet ultrices nunc. Maecenas ut auctor ex, eget vulputate lorem. Pellentesque a porta est, at consequat nisl.",
    "manufactor": "Grupo Aeroportuario Del Pacifico, S.A. de C.V.",
    "race" : "Samoyed",
    "robe": "Blanche",
    "product_img": "https://www.pet365.co.uk/blog/wp-content/uploads/Samoyed_31028689.jpg"
  },
  {
    "id": 4,
    "product_name": "Veal - Liver",
    "product_price": "6,66",
    "description": "Lorem ipsum dolor sit amet, consectetur adipiscing elit. Nulla sit amet ultrices nunc. Maecenas ut auctor ex, eget vulputate lorem. Pellentesque a porta est, at consequat nisl.",
    "manufactor": "2U, Inc.",
    "race" : "Samoyed",
    "robe": "Blanche",
    "product_img": "https://www.pet365.co.uk/blog/wp-content/uploads/Samoyed_31028689.jpg"
  },
  {
    "id": 5,
    "product_name": "Chocolate - Pistoles, Lactee, Milk",
    "product_price": "6,33",
    "description": "Lorem ipsum dolor sit amet, consectetur adipiscing elit. Nulla sit amet ultrices nunc. Maecenas ut auctor ex, eget vulputate lorem. Pellentesque a porta est, at consequat nisl.",
    "manufactor": "GrubHub Inc.",
    "race" : "Samoyed",
    "robe": "Blanche",
    "product_img": "https://www.pet365.co.uk/blog/wp-content/uploads/Samoyed_31028689.jpg"
  },
  {
    "id": 6,
    "product_name": "Salt - Rock, Course",
    "product_price": "6,98",
    "description": "Lorem ipsum dolor sit amet, consectetur adipiscing elit. Nulla sit amet ultrices nunc. Maecenas ut auctor ex, eget vulputate lorem. Pellentesque a porta est, at consequat nisl.",
    "manufactor": "Silver Run Acquisition Corporation II",
    "race" : "Samoyed",
    "robe": "Blanche",
    "product_img": "https://www.pet365.co.uk/blog/wp-content/uploads/Samoyed_31028689.jpg"
  },
  {
    "id": 7,
    "product_name": "Apricots Fresh",
    "product_price": "6,85",
    "description": "Lorem ipsum dolor sit amet, consectetur adipiscing elit. Nulla sit amet ultrices nunc. Maecenas ut auctor ex, eget vulputate lorem. Pellentesque a porta est, at consequat nisl.",
    "manufactor": "Gladstone Commercial Corporation",
    "race" : "Samoyed",
    "robe": "Blanche",
    "product_img": "https://www.pet365.co.uk/blog/wp-content/uploads/Samoyed_31028689.jpg"
  },
  {
    "id": 8,
    "product_name": "Sprouts - Bean",
    "product_price": "4,67",
    "description": "Lorem ipsum dolor sit amet, consectetur adipiscing elit. Nulla sit amet ultrices nunc. Maecenas ut auctor ex, eget vulputate lorem. Pellentesque a porta est, at consequat nisl.",
    "manufactor": "Kimco Realty Corporation",
    "race" : "Samoyed",
    "robe": "Blanche",
    "product_img": "https://www.pet365.co.uk/blog/wp-content/uploads/Samoyed_31028689.jpg"
  },
  {
    "id": 9,
    "product_name": "Lemon Balm - Fresh",
    "product_price": "2,01",
    "description": "Lorem ipsum dolor sit amet, consectetur adipiscing elit. Nulla sit amet ultrices nunc. Maecenas ut auctor ex, eget vulputate lorem. Pellentesque a porta est, at consequat nisl.",
    "manufactor": "BankUnited, Inc.",
    "race" : "Samoyed",
    "robe": "Blanche",
    "product_img": "https://www.pet365.co.uk/blog/wp-content/uploads/Samoyed_31028689.jpg"
  },
  {
    "id": 10,
    "product_name": "Bread - White Mini Epi",
    "product_price": "8,90",
    "description": "Lorem ipsum dolor sit amet, consectetur adipiscing elit. Nulla sit amet ultrices nunc. Maecenas ut auctor ex, eget vulputate lorem. Pellentesque a porta est, at consequat nisl.",
    "manufactor": "Nuveen Preferred and Income Term Fund",
    "race" : "Samoyed",
    "robe": "Blanche",
    "product_img": "https://www.pet365.co.uk/blog/wp-content/uploads/Samoyed_31028689.jpg"
  },
  {
    "id": 11,
    "product_name": "Mustard - Dijon",
    "product_price": "5,65",
    "description": "Lorem ipsum dolor sit amet, consectetur adipiscing elit. Nulla sit amet ultrices nunc. Maecenas ut auctor ex, eget vulputate lorem. Pellentesque a porta est, at consequat nisl.",
    "manufactor": "OFG Bancorp",
    "race" : "Samoyed",
    "robe": "Blanche",
    "product_img": "https://www.pet365.co.uk/blog/wp-content/uploads/Samoyed_31028689.jpg"
  },
  {
    "id": 12,
    "product_name": "Sea Bass - Fillets",
    "product_price": "3,33",
    "description": "Lorem ipsum dolor sit amet, consectetur adipiscing elit. Nulla sit amet ultrices nunc. Maecenas ut auctor ex, eget vulputate lorem. Pellentesque a porta est, at consequat nisl.",
    "manufactor": "Whole Foods Market, Inc.",
    "race" : "Samoyed",
    "robe": "Blanche",
    "product_img": "https://www.pet365.co.uk/blog/wp-content/uploads/Samoyed_31028689.jpg"
  },
  {
    "id": 13,
    "product_name": "Cheese - Boursin, Garlic / Herbs",
    "product_price": "0,27",
    "description": "Lorem ipsum dolor sit amet, consectetur adipiscing elit. Nulla sit amet ultrices nunc. Maecenas ut auctor ex, eget vulputate lorem. Pellentesque a porta est, at consequat nisl.",
    "manufactor": "Plains All American Pipeline, L.P.",
    "race" : "Samoyed",
    "robe": "Blanche",
    "product_img": "https://www.pet365.co.uk/blog/wp-content/uploads/Samoyed_31028689.jpg"
  },
  {
    "id": 14,
    "product_name": "Cheese - Mozzarella, Buffalo",
    "product_price": "8,37",
    "description": "Lorem ipsum dolor sit amet, consectetur adipiscing elit. Nulla sit amet ultrices nunc. Maecenas ut auctor ex, eget vulputate lorem. Pellentesque a porta est, at consequat nisl.",
    "manufactor": "Malvern Bancorp, Inc.",
    "race" : "Samoyed",
    "robe": "Blanche",
    "product_img": "https://www.pet365.co.uk/blog/wp-content/uploads/Samoyed_31028689.jpg"
  },
  {
    "id": 15,
    "product_name": "Smirnoff Green Apple Twist",
    "product_price": "0,38",
    "description": "Lorem ipsum dolor sit amet, consectetur adipiscing elit. Nulla sit amet ultrices nunc. Maecenas ut auctor ex, eget vulputate lorem. Pellentesque a porta est, at consequat nisl.",
    "manufactor": "Shineco, Inc.",
    "race" : "Samoyed",
    "robe": "Blanche",
    "product_img": "https://www.pet365.co.uk/blog/wp-content/uploads/Samoyed_31028689.jpg"
  }
]